{
	"miniprogramRoot": "src/",
	"description": "项目配置文件",
	"cloudfunctionRoot": "cloud/",
	"packOptions": {
		"ignore": []
	},
	"setting": {
		"urlCheck": true,
		"es6": true,
		"postcss": true,
		"preloadBackgroundData": false,
		"minified": true,
		"newFeature": true,
		"coverView": true,
		"nodeModules": false,
		"autoAudits": false,
		"showShadowRootInWxmlPanel": true,
		"scopeDataCheck": false,
		"checkInvalidKey": true,
		"checkSiteMap": false,
		"uploadWithSourceMap": true,
		"babelSetting": {
			"ignore": [],
			"disablePlugins": [],
			"outputPath": ""
		}
	},
	"compileType": "miniprogram",
	"libVersion": "2.10.4",
	"appid": "wxb91afdf1ec6246f5",
	"projectname": "miniprogram-1",
	"debugOptions": {
		"hidedInDevtools": []
	},
	"isGameTourist": false,
	"simulatorType": "wechat",
	"simulatorPluginLibVersion": {},
	"cloudfunctionTemplateRoot": "cloudfunctionTemplate",
	"condition": {
		"search": {
			"current": -1,
			"list": []
		},
		"conversation": {
			"current": -1,
			"list": []
		},
		"plugin": {
			"current": -1,
			"list": []
		},
		"game": {
			"currentL": -1,
			"list": []
		},
		"gamePlugin": {
			"current": -1,
			"list": []
		},
		"miniprogram": {
			"current": -1,
			"list": [
				{
					"id": -1,
					"name": "pages/create/create",
					"pathName": "pages/create/create",
					"query": "",
					"scene": null
				},
				{
					"id": -1,
					"name": "pages/me/me",
					"pathName": "pages/me/me",
					"query": "",
					"scene": null
				},
				{
					"id": -1,
					"name": "pages/input/input",
					"pathName": "pages/input/input",
					"query": "",
					"scene": null
				},
				{
					"id": -1,
					"name": "pages/input/input",
					"pathName": "pages/input/input",
					"query": "",
					"scene": null
				},
				{
					"id": -1,
					"name": "pages/me/me",
					"pathName": "pages/me/me",
					"query": "",
					"scene": null
				},
				{
					"id": -1,
					"name": "pages/index/index",
					"pathName": "pages/index/index",
					"query": "",
					"scene": null
				},
				{
					"id": -1,
					"name": "pages/auth/auth",
					"pathName": "pages/auth/auth",
					"query": "",
					"scene": null
				},
				{
					"id": -1,
					"name": "pages/list/list",
					"pathName": "pages/list/list",
					"query": "",
					"scene": null
				},
				{
					"id": -1,
					"name": "pages/getwdjslist/getwdjslist",
					"pathName": "pages/getwdjslist/getwdjslist",
					"query": "",
					"scene": null
				},
				{
					"id": 9,
					"name": "pages/logs/logs",
					"pathName": "pages/logs/logs",
					"query": "",
					"scene": null
				}
			]
		}
	}
}